<?xml version="1.0" encoding="utf-8"?>
<!-- Generator: Adobe Illustrator 23.0.1, SVG Export Plug-In . SVG Version: 6.00 Build 0)  -->
<svg version="1.1" id="레이어_1" xmlns="http://www.w3.org/2000/svg" xmlns:xlink="http://www.w3.org/1999/xlink" x="0px"
	 y="0px" width="16.6px" height="14.4px" viewBox="0 0 16.6 14.4" style="enable-background:new 0 0 16.6 14.4;"
	 xml:space="preserve">
<style type="text/css">
	.st0{fill:#FFFFFF;}
</style>
<g>
	<path class="st0" d="M12.7,4.2c-0.2,0-0.3-0.1-0.3-0.3c0-1.3-2.3-2.3-5.1-2.3c-2.8,0-5.1,1.1-5.1,2.3c0,0.2-0.1,0.3-0.3,0.3
		S1.5,4.1,1.5,3.9c0-1.7,2.5-3,5.8-3c3.2,0,5.8,1.3,5.8,3C13,4.1,12.9,4.2,12.7,4.2z"/>
	<path class="st0" d="M1.8,10.8c-0.2,0-0.3-0.1-0.3-0.3V3.9c0-0.2,0.1-0.3,0.3-0.3s0.3,0.1,0.3,0.3v6.5C2.1,10.6,2,10.8,1.8,10.8z"
		/>
	<path class="st0" d="M12.7,10.8c-0.2,0-0.3-0.1-0.3-0.3V3.9c0-0.2,0.1-0.3,0.3-0.3c0.2,0,0.3,0.1,0.3,0.3v6.5
		C13,10.6,12.9,10.8,12.7,10.8z"/>
	<path class="st0" d="M7.3,10.1c-3.2,0-5.8-1.3-5.8-3c0-0.2,0.1-0.3,0.3-0.3S2.1,7,2.1,7.2c0,1.3,2.3,2.3,5.1,2.3
		c2.8,0,5.1-1.1,5.1-2.3c0-0.2,0.1-0.3,0.3-0.3C12.9,6.8,13,7,13,7.2C13,8.8,10.5,10.1,7.3,10.1z"/>
	<path class="st0" d="M7.3,13.4c-3.2,0-5.8-1.3-5.8-3c0-0.2,0.1-0.3,0.3-0.3s0.3,0.1,0.3,0.3c0,1.3,2.3,2.3,5.1,2.3
		c2.8,0,5.1-1.1,5.1-2.3c0-0.2,0.1-0.3,0.3-0.3c0.2,0,0.3,0.1,0.3,0.3C13,12.1,10.5,13.4,7.3,13.4z"/>
	<path class="st0" d="M7.3,6.9c-3.2,0-5.8-1.3-5.8-3c0-0.2,0.1-0.3,0.3-0.3s0.3,0.1,0.3,0.3c0,1.3,2.3,2.3,5.1,2.3
		c2.8,0,5.1-1.1,5.1-2.3c0-0.2,0.1-0.3,0.3-0.3c0.2,0,0.3,0.1,0.3,0.3C13,5.6,10.5,6.9,7.3,6.9z"/>
</g>
</svg>
